…
    activity <- read.csv("C:/Users/pmps/Downloads/activity.csv")

    activity <- activity %>% 
      drop_na(steps)

### Question 1

Calculate the total number of steps taken per day.

    activity %>% 
      group_by(date) %>% 
      summarize(total_steps = sum(steps))

    ## # A tibble: 53 × 2
    ##    date       total_steps
    ##    <chr>            <int>
    ##  1 2012-10-02         126
    ##  2 2012-10-03       11352
    ##  3 2012-10-04       12116
    ##  4 2012-10-05       13294
    ##  5 2012-10-06       15420
    ##  6 2012-10-07       11015
    ##  7 2012-10-09       12811
    ##  8 2012-10-10        9900
    ##  9 2012-10-11       10304
    ## 10 2012-10-12       17382
    ## # ℹ 43 more rows
…
### Question 2

Devise a strategy for filling in all of the missing values in the
dataset. The strategy does not need to be sophisticated. For example,
you could use the mean/median for that day, or the mean for that
5-minute interval, etc.

    activity %>% 
      group_by(interval) %>% 
      mutate(steps = if_else(is.na(steps), mean(steps, na.rm = TRUE), steps)) 

    ## # A tibble: 17,568 × 3
    ## # Groups:   interval [288]
    ##     steps date       interval
    ##     <dbl> <chr>         <int>
    ##  1 1.72   2012-10-01        0
    ##  2 0.340  2012-10-01        5
    ##  3 0.132  2012-10-01       10
    ##  4 0.151  2012-10-01       15
    ##  5 0.0755 2012-10-01       20
    ##  6 2.09   2012-10-01       25
    ##  7 0.528  2012-10-01       30
    ##  8 0.868  2012-10-01       35
    ##  9 0      2012-10-01       40
    ## 10 1.47   2012-10-01       45
    ## # ℹ 17,558 more rows
…
